1 0.499756 0.720215 0.999512 0.557617 
0 0.532471 0.454102 0.026855 0.037109 
0 0.755127 0.446777 0.020996 0.041992 
0 0.739502 0.451172 0.029785 0.041016 
0 0.776611 0.451660 0.030762 0.047852 
0 0.702148 0.447754 0.032227 0.040039 
0 0.518311 0.456055 0.014160 0.039062 
0 0.470459 0.456055 0.040527 0.046875 
0 0.433838 0.458984 0.042480 0.052734 
0 0.500977 0.458984 0.041016 0.050781 
0 0.398193 0.462891 0.048340 0.052734 
0 0.011963 0.527832 0.023926 0.168945 
0 0.318604 0.480957 0.108887 0.131836 
0 0.674316 0.446289 0.035156 0.050781 
0 0.643066 0.455566 0.044922 0.061523 
0 0.601318 0.452148 0.027832 0.025391 
