1 0.499756 0.704590 0.999512 0.588867 
0 0.187988 0.477051 0.015625 0.024414 
0 0.194580 0.485352 0.020020 0.027344 
0 0.399902 0.468262 0.041992 0.047852 
0 0.714355 0.462402 0.087891 0.129883 
0 0.568604 0.455078 0.049316 0.072266 
0 0.632324 0.474121 0.115234 0.161133 
0 0.871826 0.493652 0.211426 0.243164 
0 0.437988 0.454102 0.039062 0.093750 
0 0.494873 0.489258 0.132324 0.236328 
0 0.169189 0.483398 0.017090 0.023438 
0 0.025146 0.498047 0.050293 0.095703 
